\relax 
\providecommand\hyper@newdestlabel[2]{}
\providecommand\HyperFirstAtBeginDocument{\AtBeginDocument}
\HyperFirstAtBeginDocument{\ifx\hyper@anchor\@undefined
\global\let\oldcontentsline\contentsline
\gdef\contentsline#1#2#3#4{\oldcontentsline{#1}{#2}{#3}}
\global\let\oldnewlabel\newlabel
\gdef\newlabel#1#2{\newlabelxx{#1}#2}
\gdef\newlabelxx#1#2#3#4#5#6{\oldnewlabel{#1}{{#2}{#3}}}
\AtEndDocument{\ifx\hyper@anchor\@undefined
\let\contentsline\oldcontentsline
\let\newlabel\oldnewlabel
\fi}
\fi}
\global\let\hyper@last\relax 
\gdef\HyperFirstAtBeginDocument#1{#1}
\providecommand\HyField@AuxAddToFields[1]{}
\providecommand\HyField@AuxAddToCoFields[2]{}
\select@language{english}
\@writefile{toc}{\select@language{english}}
\@writefile{lof}{\select@language{english}}
\@writefile{lot}{\select@language{english}}
\@writefile{toc}{\contentsline {section}{\numberline {1}Introduction}{3}{section.1}}
\@writefile{toc}{\contentsline {subsection}{\numberline {1.1}TendorFlow}{3}{subsection.1.1}}
\@writefile{toc}{\contentsline {subsection}{\numberline {1.2}MobileNet}{3}{subsection.1.2}}
\@writefile{toc}{\contentsline {section}{\numberline {2}...}{4}{section.2}}
\@writefile{toc}{\contentsline {subsection}{\numberline {2.1}Installation}{4}{subsection.2.1}}
\@writefile{toc}{\contentsline {subsection}{\numberline {2.2}Usage of TensorFlow in Docker}{4}{subsection.2.2}}
\newlabel{subsubsec:tf-docker}{{2.2}{4}{Usage of TensorFlow in Docker}{subsection.2.2}{}}
\@writefile{lof}{\contentsline {figure}{\numberline {1}{\ignorespaces Konfigurationsdatei \textit  {minion1} eines Salt Minions}}{4}{figure.1}}
\@writefile{lol}{\contentsline {lstlisting}{../Dockerfile}{4}{lstlisting.-1}}
\newlabel{fig:minion1}{{1}{4}{Konfigurationsdatei \textit {minion1} eines Salt Minions}{lstnumber.-1.28}{}}
\@writefile{toc}{\contentsline {subsection}{\numberline {2.3}Retraining of MobileNet (pipeline)}{5}{subsection.2.3}}
\newlabel{subsec:saltconfig_lokal}{{2.3}{5}{Retraining of MobileNet (pipeline)}{subsection.2.3}{}}
\@writefile{lof}{\contentsline {figure}{\numberline {2}{\ignorespaces Konfigurationsdatei \textit  {minion1} eines Salt Minions}}{5}{figure.2}}
\@writefile{lol}{\contentsline {lstlisting}{../docker\textendash entrypoint.sh}{5}{lstlisting.-2}}
\newlabel{fig:minion1}{{2}{5}{Konfigurationsdatei \textit {minion1} eines Salt Minions}{lstnumber.-2.35}{}}
\bibstyle{alpha}
\bibdata{Hausarbeit}
\bibcite{saltstack-cloudauto}{CR17}
\bibcite{vagrant-intro}{Has17a}
\bibcite{vagrant-provision}{Has17b}
\bibcite{vagrant-salt-plugin}{Has17c}
\bibcite{vagrant-provision-salt}{Has17d}
\bibcite{saltstack-enterprise}{Inc17a}
\bibcite{saltstack-services}{Inc17b}
\bibcite{saltstack-states-pt4}{Inc17c}
\bibcite{saltstack-architecture}{Inc18a}
\bibcite{saltstack-communication}{Inc18b}
\bibcite{saltstack-example-config}{Inc18c}
\bibcite{saltstack-master-config}{Inc18d}
\bibcite{saltstack-minion-config}{Inc18e}
\bibcite{saltstack-grains}{Inc18f}
\@writefile{toc}{\contentsline {section}{Literaturverzeichnis}{6}{lstnumber.-2.35}}
\bibcite{saltstack-grains-module}{Inc18g}
\bibcite{saltstack-install}{Inc18h}
\bibcite{saltstack-multimaster-pki}{Inc18i}
\bibcite{saltstack-multimaster}{Inc18j}
\bibcite{saltstack-preseed-key}{Inc18k}
\bibcite{saltstack-execution}{Inc18l}
\bibcite{saltstack-state_custom}{Inc18m}
\bibcite{saltstack-bootstrap}{Inc18n}
\bibcite{saltstack-key}{Inc18o}
\bibcite{saltstack-quickstart}{Inc18p}
\bibcite{saltstack-opensource}{Inc18q}
\bibcite{saltstack-ubuntu}{Inc18r}
\bibcite{saltstack-state}{Inc18s}
\bibcite{saltstack-pillar}{Inc18t}
\bibcite{saltstack-top}{Inc18u}
\bibcite{saltstack-jinja}{Inc18v}
\bibcite{saltstack-yaml}{Inc18w}
\bibcite{myers2016learning}{Mye16}
\bibcite{sobeslav2015opensource}{SK15}
\@writefile{toc}{\contentsline {section}{Abbildungsverzeichnis}{9}{section*.2}}
