\select@language {english}
\contentsline {section}{\numberline {1}Introduction}{3}{section.1}
\contentsline {subsection}{\numberline {1.1}TendorFlow}{3}{subsection.1.1}
\contentsline {subsection}{\numberline {1.2}MobileNet}{3}{subsection.1.2}
\contentsline {section}{\numberline {2}...}{4}{section.2}
\contentsline {subsection}{\numberline {2.1}Installation}{4}{subsection.2.1}
\contentsline {subsection}{\numberline {2.2}Usage of TensorFlow in Docker}{4}{subsection.2.2}
\contentsline {subsection}{\numberline {2.3}Retraining of MobileNet (pipeline)}{5}{subsection.2.3}
\contentsline {section}{Literaturverzeichnis}{6}{lstnumber.-2.35}
\contentsline {section}{Abbildungsverzeichnis}{9}{section*.2}
